Algoritmo triangulo
ED: A, B, C inteiro
	triangulo boleano
	trig texto
	p, areat Real
Inicio
	Escrever("Ler os 3 valores")
	Ler(A,B,C)
	
	triangulo <-- falso
	Se A + B > C ou B + C > A ou A + C > B	então
		triangulo <-- Verdadeiro
	Fimse
	
	trig <-- ""
	Se A = B ou B = C ou A=C então
		trig <-- "isoceles"
	Fimse
	
	Se A = B e B = A então
		trig <-- "equilatro"
	Fimse
	
	Se A <> B E B <> C E A <> C então
		trig <-- "escaleno"
	Fimse
		
	Se triangulo = verdadeiro então
		Escrever(trig)
		p <-- (A + B + C) /3
		areat <-- SQRT (P * (P - A) * (P - B) * (P -C)) 
	Fimse
	
	
Fim